<?xml version="1.0" encoding="iso-8859-1"?>
<!-- Generator: Adobe Illustrator 19.0.0, SVG Export Plug-In . SVG Version: 6.00 Build 0)  -->
<svg version="1.1" id="Capa_1" xmlns="http://www.w3.org/2000/svg" xmlns:xlink="http://www.w3.org/1999/xlink" x="0px" y="0px"
	 viewBox="0 0 512 512" style="enable-background:new 0 0 512 512;" xml:space="preserve">
<path style="fill:#FF9400;" d="M346,120V90c16.542,0,30-13.458,30-30s-13.458-30-30-30s-30,13.458-30,30h-30
	c0-33.084,26.916-60,60-60s60,26.916,60,60S379.084,120,346,120z"/>
<path style="fill:#FFEA84;" d="M166,120c-33.084,0-60-26.916-60-60s26.916-60,60-60s60,26.916,60,60h-30c0-16.542-13.458-30-30-30
	s-30,13.458-30,30s13.458,30,30,30V120z"/>
<path style="fill:#8FE673;" d="M482,512H30V180h452V512z"/>
<g>
	<path style="fill:#76CC5B;" d="M482,512H256V180h226V512z"/>
	<path style="fill:#76CC5B;" d="M512,210H0V90h512V210z"/>
</g>
<path style="fill:#599944;" d="M512,210H256V90h256V210z"/>
<path style="fill:#FFEA84;" d="M316,512H196V90h120V512z"/>
<g>
	<path style="fill:#FFDC40;" d="M256,120c-33.084,0-60-26.916-60-60s26.916-60,60-60s60,26.916,60,60S289.084,120,256,120z"/>
	<path style="fill:#FFDC40;" d="M316,512h-60V90h60V512z"/>
</g>
<path style="fill:#FFAB15;" d="M257,0c-0.335,0-0.666,0.02-1,0.025v119.949c0.334,0.005,0.665,0.025,1,0.025
	c33.084,0,60-26.916,60-60S290.084,0,257,0z"/>
<g>
</g>
<g>
</g>
<g>
</g>
<g>
</g>
<g>
</g>
<g>
</g>
<g>
</g>
<g>
</g>
<g>
</g>
<g>
</g>
<g>
</g>
<g>
</g>
<g>
</g>
<g>
</g>
<g>
</g>
</svg>
