<?xml version="1.0" encoding="iso-8859-1"?>
<!-- Generator: Adobe Illustrator 19.0.0, SVG Export Plug-In . SVG Version: 6.00 Build 0)  -->
<svg version="1.1" id="Capa_1" xmlns="http://www.w3.org/2000/svg" xmlns:xlink="http://www.w3.org/1999/xlink" x="0px" y="0px"
	 viewBox="0 0 512 512" style="enable-background:new 0 0 512 512;" xml:space="preserve">
<path style="fill:#F2F2F4;" d="M256,470.254c-24.908,0-49.815-4.183-73.521-12.549C114.312,433.646,62.172,377.67,43.004,307.969
	l-4.467-16.245h434.926l-4.468,16.246c-19.167,69.701-71.307,125.676-139.474,149.735C305.815,466.071,280.908,470.254,256,470.254z
	"/>
<path style="fill:#DFDFE1;" d="M256,291.724v178.53c24.908,0,49.815-4.183,73.521-12.549
	c68.167-24.059,120.307-80.035,139.474-149.735l4.468-16.246L256,291.724L256,291.724z"/>
<path style="fill:#BD9475;" d="M256,371.746c-67.138,0-130.473-16.407-178.339-46.199C27.581,294.376,0,252.186,0,206.746
	s27.581-87.63,77.661-118.801C125.527,58.153,188.862,41.746,256,41.746s130.473,16.407,178.339,46.199
	C484.419,119.116,512,161.307,512,206.746s-27.581,87.63-77.661,118.801C386.473,355.339,323.138,371.746,256,371.746z"/>
<path style="fill:#9E7957;" d="M434.339,87.945C386.473,58.153,323.138,41.746,256,41.746v330
	c67.138,0,130.473-16.407,178.339-46.199C484.419,294.376,512,252.186,512,206.746S484.419,119.116,434.339,87.945z"/>
<path style="fill:#FF6849;" d="M256,311.746c-50.619,0-98.444-9.919-134.665-27.929C81.783,264.15,60,236.779,60,206.746
	s21.783-57.404,61.335-77.071c36.221-18.01,84.045-27.929,134.665-27.929s98.444,9.919,134.665,27.929
	C430.217,149.342,452,176.713,452,206.746s-21.783,57.404-61.335,77.071C354.444,301.827,306.619,311.746,256,311.746z"/>
<g>
	<path style="fill:#E8130F;" d="M390.665,129.675c-36.221-18.01-84.045-27.929-134.665-27.929v210
		c50.619,0,98.444-9.919,134.665-27.929C430.217,264.15,452,236.779,452,206.746S430.217,149.342,390.665,129.675z"/>
	<path style="fill:#E8130F;" d="M167.602,255.437c-11.028,0-20-8.972-20-20s8.972-20,20-20s20,8.972,20,20
		S178.63,255.437,167.602,255.437z"/>
	<path style="fill:#E8130F;" d="M207.315,205.687c-11.028,0-20-8.972-20-20s8.972-20,20-20s20,8.972,20,20
		S218.343,205.687,207.315,205.687z"/>
	<path style="fill:#E8130F;" d="M145.379,196.177c-11.028,0-20-8.972-20-20s8.972-20,20-20s20,8.972,20,20
		S156.407,196.177,145.379,196.177z"/>
</g>
<g>
	<path style="fill:#FF6849;" d="M333.602,255.316c-11.028,0-20-8.972-20-20s8.972-20,20-20s20,8.972,20,20
		S344.63,255.316,333.602,255.316z"/>
	<path style="fill:#FF6849;" d="M373.315,205.566c-11.028,0-20-8.972-20-20s8.972-20,20-20s20,8.972,20,20
		S384.343,205.566,373.315,205.566z"/>
	<path style="fill:#FF6849;" d="M311.379,196.057c-11.028,0-20-8.972-20-20s8.972-20,20-20s20,8.972,20,20
		S322.407,196.057,311.379,196.057z"/>
</g>
<g>
</g>
<g>
</g>
<g>
</g>
<g>
</g>
<g>
</g>
<g>
</g>
<g>
</g>
<g>
</g>
<g>
</g>
<g>
</g>
<g>
</g>
<g>
</g>
<g>
</g>
<g>
</g>
<g>
</g>
</svg>
